mma.sim/sim_1/behav/xsim/simulate.log
Vivado Simulator 2019.2
Time resolution is 1 ps
 Block Memory Generator module loading initial data...
 Block Memory Generator data initialization complete.
Block Memory Generator module mma_tb.m.your_instance_name.inst.native_mem_module.blk_mem_gen_v8_4_4_inst is using a behavioral model for simulation which will not precisely model memory collision behavior.
clk cycle  start tvalid    res
clk= 0  count= 0 a=xxxxxxxx b=00000000 c=xxxxxxxx result=xxxxxxxx
clk= 1  count= 1 a=00000000 b=00000000 c=xxxxxxxx result=00000000
clk= 0  count= 1 a=00000000 b=00000000 c=xxxxxxxx result=00000000
clk= 1  count= 2 a=00000000 b=00000000 c=00000000 result=00000000
clk= 0  count= 2 a=00000000 b=00000000 c=00000000 result=00000000
clk= 1  count= 3 a=00000000 b=00000000 c=00000000 result=00000000
clk= 0  count= 3 a=00000000 b=00000000 c=00000000 result=00000000
clk= 1  count= 4 a=00000000 b=00000000 c=00000000 result=00000000
clk= 0  count= 4 a=00000000 b=00000000 c=00000000 result=00000000
clk= 1  count= 5 a=00000000 b=00000000 c=00000000 result=00000000
clk= 0  count= 5 a=00000000 b=00000000 c=00000000 result=00000000
clk= 1  count= 6 a=00000000 b=00000000 c=00000000 result=00000000
clk= 0  count= 6 a=00000000 b=00000000 c=00000000 result=00000000
clk= 1  count= 7 a=00000000 b=00000000 c=00000000 result=00000000
clk= 0  count= 7 a=00000000 b=00000000 c=00000000 result=00000000
clk= 1  count= 8 a=00000000 b=00000000 c=00000000 result=00000000
clk= 0  count= 8 a=00000000 b=00000000 c=00000000 result=00000000
clk= 1  count= 9 a=00000000 b=00000000 c=00000000 result=00000000
clk= 0  count= 9 a=00000000 b=00000000 c=00000000 result=00000000
clk= 1  count=10 a=00000000 b=00000000 c=00000000 result=00000000
clk= 0  count=10 a=00000000 b=00000000 c=00000000 result=00000000
clk= 1  count=11 a=00000000 b=00000000 c=00000000 result=00000000
clk= 0  count=11 a=00000000 b=00000000 c=00000000 result=00000000
clk= 1  count=12 a=00000000 b=00000000 c=00000000 result=00000000
clk= 0  count=12 a=00000000 b=00000000 c=00000000 result=00000000
clk= 1  count=13 a=00000000 b=00000000 c=00000000 result=00000000
clk= 0  count=13 a=00000000 b=00000000 c=00000000 result=00000000
clk= 1  count=14 a=00000000 b=00000000 c=00000000 result=00000000
clk= 0  count=14 a=00000000 b=00000000 c=00000000 result=00000000
clk= 1  count=15 a=00000000 b=00000000 c=00000000 result=00000000
clk= 0  count=15 a=00000000 b=00000000 c=00000000 result=00000000
clk= 1  count=16 a=00000000 b=00000000 c=00000000 result=00000000
clk= 0  count=16 a=00000000 b=00000000 c=00000000 result=00000000
clk= 1  count=17 a=00000000 b=00000000 c=00000000 result=00000000
clk= 0  count=17 a=00000000 b=00000000 c=00000000 result=00000000
clk= 1  count=18 a=00000000 b=00000000 c=00000000 result=40800000
clk= 0  count=18 a=00000000 b=00000000 c=00000000 result=40800000
clk= 1  count=19 a=00000000 b=00000000 c=00000000 result=00000000
clk= 0  count=19 a=00000000 b=00000000 c=00000000 result=00000000
clk= 1  count=20 a=00000000 b=00000000 c=00000000 result=00000000
clk= 0  count=20 a=00000000 b=00000000 c=00000000 result=00000000
clk= 1  count=21 a=00000000 b=00000000 c=00000000 result=00000000
clk= 0  count=21 a=00000000 b=00000000 c=00000000 result=00000000
clk= 1  count=22 a=00000000 b=00000000 c=00000000 result=00000000
clk= 0  count=22 a=00000000 b=00000000 c=00000000 result=00000000
clk= 1  count=23 a=00000000 b=00000000 c=00000000 result=00000000
clk= 0  count=23 a=00000000 b=00000000 c=00000000 result=00000000
clk= 1  count=24 a=00000000 b=00000000 c=00000000 result=00000000
clk= 0  count=24 a=00000000 b=00000000 c=00000000 result=00000000
clk= 1  count=25 a=00000000 b=00000000 c=00000000 result=00000000
clk= 0  count=25 a=00000000 b=00000000 c=00000000 result=00000000
clk= 1  count=26 a=00000000 b=00000000 c=00000000 result=00000000
clk= 0  count=26 a=00000000 b=00000000 c=00000000 result=00000000
clk= 1  count=27 a=00000000 b=00000000 c=00000000 result=00000000
clk= 0  count=27 a=00000000 b=00000000 c=00000000 result=00000000
clk= 1  count=28 a=00000000 b=00000000 c=00000000 result=00000000
clk= 0  count=28 a=00000000 b=00000000 c=00000000 result=00000000
clk= 1  count=29 a=00000000 b=00000000 c=00000000 result=00000000
clk= 0  count=29 a=00000000 b=00000000 c=00000000 result=00000000
clk= 1  count=30 a=00000000 b=00000000 c=00000000 result=00000000
clk= 0  count=30 a=00000000 b=00000000 c=00000000 result=00000000
clk= 1  count=31 a=00000000 b=00000000 c=00000000 result=00000000
clk= 0  count=31 a=00000000 b=00000000 c=00000000 result=00000000
clk= 1  count=32 a=00000000 b=00000000 c=00000000 result=00000000
clk= 0  count=32 a=00000000 b=00000000 c=00000000 result=00000000
clk= 1  count=33 a=00000000 b=00000000 c=00000000 result=00000000
clk= 0  count=33 a=00000000 b=00000000 c=00000000 result=00000000
clk= 1  count=34 a=00000000 b=00000000 c=00000000 result=00000000
clk= 0  count=34 a=00000000 b=00000000 c=00000000 result=00000000
clk= 1  count=35 a=00000000 b=00000000 c=00000000 result=00000000
clk= 0  count=35 a=00000000 b=00000000 c=00000000 result=00000000
clk= 1  count=36 a=00000000 b=00000000 c=00000000 result=00000000
clk= 0  count=36 a=00000000 b=00000000 c=00000000 result=00000000
clk= 1  count=37 a=00000000 b=00000000 c=00000000 result=00000000
clk= 0  count=37 a=00000000 b=00000000 c=00000000 result=00000000
clk= 1  count=38 a=00000000 b=00000000 c=00000000 result=00000000
clk= 0  count=38 a=00000000 b=00000000 c=00000000 result=00000000
clk= 1  count=39 a=00000000 b=00000000 c=00000000 result=00000000
clk= 0  count=39 a=00000000 b=00000000 c=00000000 result=00000000
clk= 1  count=40 a=00000000 b=00000000 c=00000000 result=00000000
clk= 0  count=40 a=00000000 b=00000000 c=00000000 result=00000000
clk= 1  count=41 a=00000000 b=00000000 c=00000000 result=00000000
clk= 0  count=41 a=00000000 b=00000000 c=00000000 result=00000000
clk= 1  count=42 a=00000000 b=00000000 c=00000000 result=00000000
clk= 0  count=42 a=00000000 b=00000000 c=00000000 result=00000000
clk= 1  count=43 a=00000000 b=00000000 c=00000000 result=00000000
clk= 0  count=43 a=00000000 b=00000000 c=00000000 result=00000000
clk= 1  count=44 a=00000000 b=00000000 c=00000000 result=00000000
clk= 0  count=44 a=00000000 b=00000000 c=00000000 result=00000000
clk= 1  count=45 a=00000000 b=00000000 c=00000000 result=00000000
clk= 0  count=45 a=00000000 b=00000000 c=00000000 result=00000000
clk= 1  count=46 a=00000000 b=00000000 c=00000000 result=00000000
clk= 0  count=46 a=00000000 b=00000000 c=00000000 result=00000000
clk= 1  count=47 a=00000000 b=00000000 c=00000000 result=00000000
clk= 0  count=47 a=00000000 b=00000000 c=00000000 result=00000000
clk= 1  count=48 a=00000000 b=00000000 c=00000000 result=00000000
clk= 0  count=48 a=00000000 b=00000000 c=00000000 result=00000000
clk= 1  count=49 a=00000000 b=00000000 c=00000000 result=00000000
clk= 0  count=49 a=00000000 b=00000000 c=00000000 result=00000000
clk= 1  count=50 a=00000000 b=00000000 c=00000000 result=00000000
clk= 0  count=50 a=00000000 b=00000000 c=00000000 result=00000000
clk= 1  count=51 a=00000000 b=00000000 c=00000000 result=00000000
clk= 0  count=51 a=00000000 b=00000000 c=00000000 result=00000000
clk= 1  count=52 a=00000000 b=00000000 c=00000000 result=00000000
clk= 0  count=52 a=00000000 b=00000000 c=00000000 result=00000000
clk= 1  count=53 a=00000000 b=00000000 c=00000000 result=00000000
clk= 0  count=53 a=00000000 b=00000000 c=00000000 result=00000000
clk= 1  count=54 a=00000000 b=00000000 c=00000000 result=00000000
clk= 0  count=54 a=00000000 b=00000000 c=00000000 result=00000000
clk= 1  count=55 a=00000000 b=00000000 c=00000000 result=00000000
clk= 0  count=55 a=00000000 b=00000000 c=00000000 result=00000000
clk= 1  count=56 a=00000000 b=00000000 c=00000000 result=00000000
clk= 0  count=56 a=00000000 b=00000000 c=00000000 result=00000000
clk= 1  count=57 a=00000000 b=00000000 c=00000000 result=00000000
clk= 0  count=57 a=00000000 b=00000000 c=00000000 result=00000000
clk= 1  count=58 a=00000000 b=00000000 c=00000000 result=00000000
clk= 0  count=58 a=00000000 b=00000000 c=00000000 result=00000000
clk= 1  count=59 a=00000000 b=00000000 c=00000000 result=00000000
clk= 0  count=59 a=00000000 b=00000000 c=00000000 result=00000000
